Staff_fte,Households,Businesses,Roads
595,38773,7961,1396
708,40797,7669,3104
1457,85279,16207,2141
504,22973,6248,2339.18
195,8014,2165,2976
526,29283,4143,1578.56
499,19860,4856,5223
246,10988,2994,1941
377,12615,2737,329.25
240,14149,2717,500
