Opex,Households,Businesses,Roads
117323419,38773,7961,1396
141841842.8,40797,7669,3104
258394052.2,85279,16207,2141
102514149.7,22973,6248,2339.18
33734889.12,8014,2165,2976
91234207.65,29283,4143,1578.56
72321183.52,19860,4856,5223
41483913,10988,2994,1941
56446462,12615,2737,329.25
47986539,14149,2717,500
