Opex,Households,Businesses,Roads
55882144,12938,2710,931
54142572.42,17967,5111,1988
55596077.45,14051,4131,4040
35433541.64,7980,2155,1619
29746023.26,6221,2335,2370
66451811,17865,4177,2953
44843000,7868,1918,2631
29829000,6928,1679,1883
53660164,15669,4410,1671
42721112.73,12974,2897,1474
40374063,11246,3044,3653
35350491,11080,2547,1481
24198669,7409,1513,1428
34123081,6022,2262,2744
48330854,11060,3572,2093
28530108,6611,1991,2761
49446731.74,10227,3227,1117
40786973.37,7552,2289,3492
50629866,16222,3859,3026
