Opex,Median number of days taken between receipt of a planning application and a decision on the application,Number of library collection item loans per library collection item,Average number of days it has taken for council to action animal management requests (2015/16 was the first year of reporting for this indicator).,Average number of days it has taken for council to action food complaints received from members of the public about the safety or handling of food for sale.
79738488.46,42,2.039520143,1,2.304166667
203675092.5,84,7.277262932,7.279490945,1.518518519
180373987,51,2.883176515,1,5
104624760,74,5.07801678,1.439241918,3.580681818
163344231.1,83,5.131845607,14.79931973,9.090909091
67179000,42,1.912619121,2,1
154678622,113,6.621551365,1,1.414414414
220843630.3,108,6.346427501,5.947870778,3.299019608
136250512.9,87,7.926852629,1,2
55882144,84,6.918401487,3.847519582,2.555555556
54142572.42,96,6.562242413,1.48767834,1
55596077.45,52,0.205954631,1,1
35433541.64,55,2.629943211,1,1
29746023.26,70,5.035642615,1,1
66451811,103,5.918986478,1.840123457,1.5
44843000,90,8.309684567,1.380421314,1.637362637
29829000,49,2.50802051,1.041450777,1.555555556
53660164,44,2.047901912,2.197530864,6.5
42721112.73,69,3.080795789,1,5.171428571
40374063,84,2.783988067,2.988088148,1
35350491,119,4.981759349,1.733590734,1.935779817
24198669,93,7.689819269,2.124213129,2.187969925
34123081,51.59,6.26453989,1.657610272,1
48330854,60,5.269918452,1,3.826086957
28530108,40,4.827291639,1,1.071428571
49446731.74,90,8.919360327,1,1.548387097
40786973.37,53,1.375441109,2.69928401,1.428571429
50629866,48,2.540874401,1.497084548,1
107060000,41,9.107760949,8.525010335,1.513513514
80630645.73,88,5.53513504,1.727962639,1.836065574
146405204,78,4.784237517,3.534645413,1.7
142422987,76,3.524082722,1,2
119718839.6,35,2.927984329,1.105371901,1.777777778
112766486.7,63,3.262559846,2.104248623,1.151515152
126247942,42,1.747571097,1.606965174,1
141148994.1,52.4,4.610077801,1.276607048,2.811320755
94642347,43,1.386186661,1,1.4
145223230,33,3.362853241,1,1
124023266,93,4.464123894,1.575150301,1.489010989
87293661.24,84,5.200861253,2.110638298,2.909090909
96602007.15,74,2.925595927,1.5,1
94313020.96,89,4.144147004,1,3.716814159
507042001,29,9.405579358,1.010406812,1.298969072
127034859,62,2.771867963,1,1
120828902.9,87,6.475937334,1.463494133,1.927536232
138447117.6,73,4.755935741,5.739225712,4.407407407
164429225,80,2.0925362,1,3.142857143
118818134.3,83,5.959588328,1.300598802,1.004464286
126580190,71,7.690986121,2.014115899,1.880239521
141287087.4,117,4.456114076,2.058315335,1.424615385
117323419,59,5.290962515,4.585916341,5.623308271
141841842.8,66,4.920079829,1,1
258394052.2,135,6.202517291,1.166561911,1.761006289
102514149.7,62,5.98387447,1,2.721649485
33734889.12,104,3.639080684,4.486873508,1.760869565
91234207.65,67,8.507111427,1.954907162,1.348684211
72321183.52,63,4.24912615,2.674090168,2.791666667
41483913,60,2.999471483,1,0
56446462,47,5.160433382,1,1
47986539,30,4.412220892,1.874100719,2.229508197
20064430.9,34,2.897449741,1.06185567,1
19201511.71,58,4.04906451,1,1.6
23553273,31,3.177242821,1,1
14933060.03,112,5.589688884,1.207005189,1.397515528
20386145,86.25,5.815781417,2.104153225,1.61023622
19032946,96,7.792242063,7.739899657,1.8
20804040,51,2.980357168,1,4.972222222
12008522,38,5.645413613,6,5.714285714
25645090,127,4.627264749,2.739978332,1.112068966
18173839.05,82,2.813453742,2.055285272,1.053278689
15357570,166,7.636455383,1,1.088607595
22764343,53,3.011958544,1,2
23189790.85,92,10.03280889,1,3.2
12412448,75,4.814960101,1,1.760368664
8704100,38,2.911371103,1,1
19859329,39,2.292522508,1.328282828,1.5
9380165,18,1.82390784,3.638297872,0
11775175.49,34,1.089150356,2.104153225,3.666666667
14837556,36,1.050452344,2,1
