Opex,Staff,Businesses,Households,Roads,Overall Satisfaction
20064430.9,9272,1388,4852,793,57
19201511.71,11083,989,4344,2310,57
117323419,58642,7961,38773,1396,55
107060000,57448,10024,44972,547,66
55882144,27265,2710,12938,931,54
54142572.42,23466,5111,17967,1988,54
80630645.73,38960,12905,34154,356.3,66
23553273,11381,1411,5705,1346,57
146405204,77856,24550,58402,563.73,66
142422987,75326,12715,62402,894,66
14933060.03,8681,1008,2540,5313,57
55596077.45,33623,4131,14051,4040,54
79738488.46,31068,7096,29884,1502,61
203675092.5,94667,17476,89727,1603,61
20386145,11222,874,5339,1319.7,57
35433541.64,18433,2155,7980,1619,54
29746023.26,14683,2335,6221,2370,54
119718839.6,76356,11714,54062,514,66
66451811,25777,4177,17865,2953,54
112766486.7,63795,9541,50494,735.09,66
19032946,11269,1380,4001,2272,57
126247942,65173,14926,51694,483,66
44843000,20738,1918,7868,2631,54
29829000,16493,1679,6928,1883,54
141841842.8,57886,7669,40797,3104,55
141148994.1,72107,13057,47709,696,66
258394052.2,131208,16207,85279,2141,55
102514149.7,44180,6248,22973,2339.18,55
20804040,11127,1437,6070,1409,57
12008522,5880,786,2230,3177,57
94642347,53695,6554,31910,432,66
33734889.12,16267,2165,8014,2976,55
180373987,96313,13251,57503,1228,61
25645090,11909,1772,5844,1565,57
145223230,77180,15484,55630,613,66
124023266,68303,12607,53677,721,66
91234207.65,50759,4143,29283,1578.56,55
18173839.05,9847,1033,2978,4722,57
53660164,30314,4410,15669,1671,54
87293661.24,48173,12888,39570,598,66
15357570,8192,1140,3207,807,57
96602007.15,51721,6245,28250,306,66
94313020.96,48423,8705,39965,484,66
507042001,235835,37424,46706,215,66
104624760,43052,6764,42801,1058.93,61
72321183.52,42920,4856,19860,5223,55
42721112.73,22571,2897,12974,1474,54
40374063,18965,3044,11246,3653,54
127034859,67476,19065,61393,736,66
120828902.9,67556,10203,42269,419,66
35350491,17979,2547,11080,1481,54
138447117.6,75813,12261,58803,520,66
163344231.1,68876,13938,57573,1699,61
24198669,13750,1513,7409,1428,54
34123081,14575,2262,6022,2744,54
22764343,12638,1616,5065,1202,57
67179000,30835,6454,19962,778,61
23189790.85,12509,1131,4828,3423,57
164429225,80932,19483,45461,265,66
12412448,6430,810,2801,2028,57
8704100,3676,315,1221,43,57
48330854,23135,3572,11060,2093,54
28530108,16545,1991,6611,2761,54
118818134.3,59106,17499,40795,340,66
19859329,9000,1298,3894,2243,57
49446731.74,26316,3227,10227,1117,54
40786973.37,19127,2289,7552,3492,54
9380165,4922,917,2314,1183,57
41483913,23500,2994,10988,1941,55
56446462,30013,2737,12615,329.25,55
50629866,23747,3859,16222,3026,54
11775175.49,6339,758,1750,2809,57
126580190,67195,14952,56703,598,66
154678622,81018,12116,58798,1277,61
47986539,22212,2717,14149,500,55
220843630.3,111596,12530,65679,1374,61
141287087.4,75871,13824,32850,215,66
136250512.9,62175,12789,52835,1757,61
14837556,7607,1105,2790,4793,57
