Staff,Households,Businesses,Roads,WasteCollected
57448,44972.2,10024,547,20700
38960,34154,12905,356.3,21176.75
77856,58401.8,24550,563.73,37112
75326,62401.6,12715,894,42702
76356,54061.8,11714,514,26865
63795,50493.8,9541,735.09,25261
65173,51693.6,14926,483,31015
72107,47708.6,13057,696,29454
53695,31909.8,6554,432,18847.56
77180,55630.4,15484,613,31102
68303,53677.4,12607,721,28671
48173,39570.2,12888,598,21686.98
51721,28250.4,6245,306,18556
48423,39965.4,8705,484,20700
235835,46706,37424,215,21051.86
67476,61393.4,19065,736,32389
67556,42269.4,10203,419,24169
75813,58802.8,12261,520,30425
80932,45461,19483,265,21458
59106,40794.6,17499,340,24377
67195,56702.6,14952,598,28773
75871,32849.8,13824,215,15777
