Total Expenditure on Waste Collection,Population Density,WCI,Total Garbage and Recyclables Collected,Implied Recycling Rate
9484310.93,76.1,138.3964833,26666,33.05707643
25285332,765.8,67.36826792,82325,33.17825691
17016212.56,412.5,127.0975331,60625.2,27.05640559
13887045,268.7,164.4020954,36851.5,31.9531091
21842823.15,222.1,129.7773335,53366.4,42.48740781
4729000,148.7,73.82141742,13909.52,53.81925473
13483424,424.5,131.4402683,51781,32.08512775
58433140.83,420.8,235.485243,62615,29.89060129
15638413.89,62.9,89.89660842,47357,36.77175497
