"TE (CRS)","TE (VRS)","Scale Efficiency Score","RTS"
0.697681817759149,0.713638585973797,0.977640267036745,"Increasing"
1,1,1,"Constant"
0.931201596106804,1,0.931201596106805,"Decreasing"
0.730156667574558,0.820405304815851,0.889995058891593,"Increasing"
0.993329337316788,1,0.993329337316788,"Constant"
0.97243139489773,1,0.972431394897727,"Decreasing"
0.658653725701205,0.750857744464408,0.877201747677287,"Increasing"
0.792048960559674,0.878285452518328,0.901812683209786,"Increasing"
0.879939074154973,0.898655383338352,0.97917298496132,"Increasing"
0.916431690237455,0.935878129023876,0.979221184699866,"Increasing"
1,0.999999999999999,1,"Constant"
0.954742653371697,0.979056193004755,0.97516634917712,"Increasing"
0.962027558344992,1.00000000000001,0.962027558344983,"Increasing"
0.977414367006793,1.00000000000001,0.977414367006784,"Increasing"
0.830850817519567,0.840400050005185,0.98863727758517,"Increasing"
1,1.00000000000002,0.999999999999978,"Constant"
0.691344288117808,0.761800024910311,0.907514131676751,"Increasing"
0.947830221412108,0.955779839739193,0.991682584213897,"Increasing"
1,1,0.999999999999999,"Constant"
