"TE (CRS)","TE (VRS)","Scale Efficiency Score","RTS"
1,1,0.999999999999999,"Constant"
0.946155861310438,1,0.946155861310438,"Increasing"
0.89819391367607,1,0.89819391367607,"Increasing"
0.958071395768091,0.98349074160076,0.974153955134041,"Increasing"
1,0.999999999999999,1,"Constant"
0.881022445266546,0.887226307366637,0.993007576478989,"Increasing"
0.852848818525908,1,0.852848818525907,"Decreasing"
0.983212333096259,0.999999999999998,0.983212333096261,"Increasing"
0.542603747646434,0.628549562095174,0.863263265728397,"Increasing"
0.904694740326172,1,0.904694740326171,"Increasing"
