"TE (CRS)","TE (VRS)","Scale Efficiency Score","RTS"
1,1,0.999999999999996,"Constant"
0.901586776369318,0.905803950584343,0.995344274870622,"Increasing"
0.998653645672067,1,0.998653645672067,"Constant"
0.844778367427779,0.894409181150576,0.944509946041753,"Decreasing"
1,0.999999999999993,1.00000000000001,"Constant"
0.986794966566637,0.999543018707712,0.987246119574166,"Increasing"
1,0.999999999999992,1.00000000000001,"Constant"
1,0.999999999999994,1.00000000000001,"Constant"
0.705281497762863,0.791185029133312,0.891424220369096,"Increasing"
0.892198778149332,1,0.892198778149328,"Increasing"
