TE (CRS),TE (VRS),Scale Efficiency Score,RTS
0.911304053,0.911304053,1,Increasing
1,1,1,Constant
1,1,1,Constant
0.983873107,1,0.983873107,Decreasing
0.949596567,0.949596567,1,Increasing
0.976940758,1,0.976940758,Decreasing
0.879540579,0.879540579,1,Increasing
0.792358665,0.797528976,0.993517087,Decreasing
0.874000832,0.874000832,1,Increasing
0.804080903,0.804080903,1,Increasing
0.922921619,0.933339247,0.988838327,Decreasing
1,1,1,Constant
0.834668431,0.834668431,1,Decreasing
0.951850666,0.951850666,1,Decreasing
0.479074313,1,0.479074313,Decreasing
1,1,1,Constant
0.763134692,0.763134692,1,Decreasing
0.883501884,0.883501884,1,Increasing
0.733829773,0.752872539,0.974706522,Decreasing
0.907478306,0.918766803,0.987713425,Decreasing
0.937874023,0.937874023,1,Increasing
0.607425939,0.607425939,1,Decreasing
,,,
0.872429778,0.899976642,,
0.134353586,0.104537105,,
