TE (CRS),TE (VRS),Scale Efficiency Score,RTS
1,1,1,Constant
1,1,1,Constant
0.798865007,0.798865007,1,Increasing
1,1,1,Constant
0.933501058,1,0.933501058,Increasing
1,1,1,Constant
0.902808453,0.902808453,1,Increasing
0.69419806,0.69419806,1,Increasing
1,1,1,Constant
,,,
0.925485842,0.932874613,,
0.11060469,0.113393094,,
