TE (CRS),TE (VRS),Scale Efficiency Score,RTS
1,1,1,Constant
0.905684996,0.909720724,0.995563773,Increasing
0.928051117,0.929804497,0.998114249,Increasing
1,1,1,Constant
0.902619747,0.911437808,0.990325109,Increasing
0.861097279,0.980328931,0.878375871,Decreasing
1,1,1,Constant
0.999468068,1,0.999468068,Constant
1,1,1,Constant
0.865104633,0.893190682,0.968555372,Decreasing
0.834938121,0.887232665,0.941058816,Decreasing
0.876111174,0.996183134,0.879467985,Decreasing
0.839899039,1,0.839899039,Decreasing
0.953691651,0.972610457,0.980548425,Increasing
0.620014756,1,0.620014756,Increasing
0.9339705,0.939950718,0.993637733,Decreasing
1,1,1,Constant
0.821692011,0.978622281,0.839641634,Increasing
1,1,1,Constant
,,,
0.9127549,0.968372731,,
0.096418217,0.041669968,,
