"TE (CRS)","TE (VRS)","Scale Efficiency Score","RTS"
0.0882682401103538,0.123806273253246,0.712954503765742,"Increasing"
0.0855825234703685,0.0856341536595829,0.999397084142156,"Increasing"
0.0665564272698532,0.0677495742353918,0.982388864003883,"Increasing"
0.111412469435938,0.118201641692627,0.942562792195873,"Increasing"
0.186092922298767,0.999999999999958,0.186092922298775,"Decreasing"
0.0951536258112933,0.142925960976946,0.665754668787162,"Increasing"
0.0864973477924222,0.0888333916926192,0.973703087817697,"Increasing"
0.0797835751155724,0.162889343140289,0.489802301227641,"Decreasing"
0.121861028221848,0.126025944305739,0.96695191528351,"Decreasing"
0.255534349580054,0.262152131065519,0.974755950071559,"Decreasing"
0.245194889162547,0.250366673331298,0.979343160573503,"Increasing"
0.104951630411497,0.170277747435001,0.616355524972866,"Increasing"
0.171641660196277,0.270584410719588,0.634336840543828,"Increasing"
0.347752093535207,0.403399047418586,0.862054820804679,"Increasing"
0.181127010232908,0.192889379123755,0.939020131931157,"Increasing"
0.374014000984722,0.395527885843687,0.945607160382449,"Decreasing"
0.300567186119893,0.40868654813191,0.735446731715965,"Increasing"
0.258025163234962,0.880041615145883,0.293196547520301,"Decreasing"
0.32108145194884,0.705758579642746,0.454945162850689,"Decreasing"
0.279699384806252,0.319385431479097,0.875742464241227,"Increasing"
0.362225867231054,0.382770344735889,0.946326882979897,"Increasing"
0.699275266709421,0.71249442567743,0.981446649276673,"Decreasing"
0.372263939616645,0.382436990049182,0.973399407752821,"Increasing"
0.271166624911294,0.282623376233486,0.959462831861696,"Increasing"
0.342068211003683,0.386765132227986,0.884433943238827,"Increasing"
0.36351341943584,0.395387209913311,0.919385883816376,"Decreasing"
0.210754596851723,0.285022633830957,0.739431090152366,"Increasing"
0.122194212435769,0.190609854598791,0.641069753150863,"Increasing"
0.181530299028034,0.999999999997155,0.181530299028551,"Decreasing"
0.140082426250643,0.153919250798204,0.91010335305165,"Increasing"
0.0792867507206482,0.0872658891517285,0.908565207910654,"Increasing"
0.0657528490417779,0.0797753839133373,0.824224789857576,"Increasing"
0.05123056826301,0.0812383957360025,0.630620137176172,"Increasing"
0.0736460471482054,0.0951177251765182,0.77426207377788,"Increasing"
0.0462553482351638,0.0759927658144306,0.608680941395347,"Increasing"
0.0679956702379731,0.0782119839708594,0.869376619615062,"Increasing"
0.0603915075780289,0.0976513215730836,0.6184402484797,"Increasing"
0.0470494810289064,0.0636934664410133,0.738686142517914,"Increasing"
0.0886886723747485,0.103455209906869,0.857266371162811,"Increasing"
0.138600002686389,0.149003033348599,0.930182423616359,"Increasing"
0.0865835909020767,0.114303918367614,0.757485763730463,"Increasing"
0.138930147964479,0.140327006533733,0.990045689680425,"Increasing"
0.0373054515526918,0.041701965715745,0.89457297545585,"Decreasing"
0.0524119297765829,0.0783377547181754,0.669050701863205,"Increasing"
0.118629465705718,0.123566231366786,0.960047614898817,"Increasing"
0.10456846460399,0.150370206027264,0.695406805421485,"Decreasing"
0.0697567846321704,0.0752232488793095,0.927330122952949,"Increasing"
0.101415694295901,0.107051289520329,0.947356120139425,"Increasing"
0.123183830912311,0.127204441616069,0.968392528966137,"Decreasing"
0.0904046891368069,0.0955848996877883,0.945805136921191,"Increasing"
0.12159860965956,0.302544121948468,0.401920251751814,"Decreasing"
0.0889575395086599,0.108431060506629,0.820406432372957,"Increasing"
0.0594154943957356,0.0598383083314732,0.992934059342128,"Increasing"
0.121909482812405,0.127624622387454,0.955219146053979,"Increasing"
0.448336688501782,0.450559035538591,0.995067578582344,"Increasing"
0.188671001225412,0.204438686259536,0.922873281360717,"Decreasing"
0.131701087659808,0.155519061074958,0.846848526151592,"Increasing"
0.155628317491273,0.237385155933824,0.655594141424148,"Increasing"
0.184572293799882,0.203531683063243,0.906847970900582,"Increasing"
0.189364057028874,0.220313451007992,0.859521087625306,"Increasing"
0.294650927906466,0.440085322160411,0.669531368281049,"Increasing"
0.431189767728715,0.534403490720194,0.806861809880055,"Increasing"
0.28047888734768,0.412333024488059,0.680224165153675,"Increasing"
0.762878517698925,0.856714204649669,0.890470256660312,"Increasing"
0.628994765529722,0.682755536619212,0.921259121008821,"Increasing"
1,1,1,"Constant"
0.573232203325631,0.58439690845733,0.980895338476085,"Increasing"
1.00000000000005,1.00000000000004,1.00000000000001,"Constant"
0.567316708880601,0.57983044091336,0.978418290676415,"Increasing"
0.540194006367,0.642727845139977,0.840470831397314,"Increasing"
1,1,1,"Constant"
0.328200025406891,0.447079152865369,0.73409825375088,"Increasing"
0.880257933206663,0.999999999999998,0.880257933206664,"Decreasing"
0.791673622136795,0.911394899523253,0.868639513509365,"Increasing"
0.681641409671952,1,0.681641409671952,"Increasing"
0.279047707402978,0.458528282213541,0.608572509542657,"Increasing"
0.77629373680996,1.00000000000001,0.776293736809951,"Increasing"
0.721615892181547,0.897928698330765,0.803644981525838,"Increasing"
0.397018077422523,0.623650641179102,0.636603333994659,"Increasing"
