Staff_fte,Households,Businesses,Roads,Type
303,29884,7096,1502,Interface
1043,89727,17476,1603,Interface
920,57503,13251,1228,Interface
464,42801,6764,1058.93,Interface
667,57573,13938,1699,Interface
282,19962,6454,778,Interface
788,58798,12116,1277,Interface
1090,65679,12530,1374,Interface
615,52835,12789,1757,Interface
288,12938,2710,931,Large Rural
244,17967,5111,1988,Large Rural
325,14051,4131,4040,Large Rural
221,7980,2155,1619,Large Rural
177,6221,2335,2370,Large Rural
277,17865,4177,2953,Large Rural
242,7868,1918,2631,Large Rural
174,6928,1679,1883,Large Rural
304,15669,4410,1671,Large Rural
229,12974,2897,1474,Large Rural
198,11246,3044,3653,Large Rural
187,11080,2547,1481,Large Rural
140,7409,1513,1428,Large Rural
213,6022,2262,2744,Large Rural
251,11060,3572,2093,Large Rural
217,6611,1991,2761,Large Rural
275,10227,3227,1117,Large Rural
217,7552,2289,3492,Large Rural
264,16222,3859,3026,Large Rural
618,44972,10024,547,Metropolitan
372,34154,12905,356.3,Metropolitan
758,58402,24550,563.73,Metropolitan
808,62402,12715,894,Metropolitan
734,54062,11714,514,Metropolitan
609,50494,9541,735.09,Metropolitan
650,51694,14926,483,Metropolitan
727,47709,13057,696,Metropolitan
525,31910,6554,432,Metropolitan
728,55630,15484,613,Metropolitan
651,53677,12607,721,Metropolitan
481,39570,12888,598,Metropolitan
513,28250,6245,306,Metropolitan
456,39965,8705,484,Metropolitan
2322,46706,37424,215,Metropolitan
633,61393,19065,736,Metropolitan
719,42269,10203,419,Metropolitan
771,58803,12261,520,Metropolitan
744,45461,19483,265,Metropolitan
545,40795,17499,340,Metropolitan
626,56703,14952,598,Metropolitan
659,32850,13824,215,Metropolitan
595,38773,7961,1396,Regional Centre
708,40797,7669,3104,Regional Centre
1457,85279,16207,2141,Regional Centre
504,22973,6248,2339.18,Regional Centre
195,8014,2165,2976,Regional Centre
526,29283,4143,1578.56,Regional Centre
499,19860,4856,5223,Regional Centre
246,10988,2994,1941,Regional Centre
377,12615,2737,329.25,Regional Centre
240,14149,2717,500,Regional Centre
104,4852,1388,793,Small Rural
126,4344,989,2310,Small Rural
123,5705,1411,1346,Small Rural
103,2540,1008,5313,Small Rural
145,5339,874,1319.7,Small Rural
139,4001,1380,2272,Small Rural
118,6070,1437,1409,Small Rural
79,2230,786,3177,Small Rural
132,5844,1772,1565,Small Rural
137,2978,1033,4722,Small Rural
94,3207,1140,807,Small Rural
132,5065,1616,1202,Small Rural
144,4828,1131,3423,Small Rural
78,2801,810,2028,Small Rural
39,1221,315,43,Small Rural
93,3894,1298,2243,Small Rural
58,2314,917,1183,Small Rural
83,1750,758,2809,Small Rural
106,2790,1105,4793,Small Rural
