Opex,Households,Businesses,Roads,Type
79738488.46,29884,7096,1502,Interface
203675092.5,89727,17476,1603,Interface
180373987,57503,13251,1228,Interface
104624760,42801,6764,1058.93,Interface
163344231.1,57573,13938,1699,Interface
67179000,19962,6454,778,Interface
154678622,58798,12116,1277,Interface
220843630.3,65679,12530,1374,Interface
136250512.9,52835,12789,1757,Interface
55882144,12938,2710,931,Large Rural
54142572.42,17967,5111,1988,Large Rural
55596077.45,14051,4131,4040,Large Rural
35433541.64,7980,2155,1619,Large Rural
29746023.26,6221,2335,2370,Large Rural
66451811,17865,4177,2953,Large Rural
44843000,7868,1918,2631,Large Rural
29829000,6928,1679,1883,Large Rural
53660164,15669,4410,1671,Large Rural
42721112.73,12974,2897,1474,Large Rural
40374063,11246,3044,3653,Large Rural
35350491,11080,2547,1481,Large Rural
24198669,7409,1513,1428,Large Rural
34123081,6022,2262,2744,Large Rural
48330854,11060,3572,2093,Large Rural
28530108,6611,1991,2761,Large Rural
49446731.74,10227,3227,1117,Large Rural
40786973.37,7552,2289,3492,Large Rural
50629866,16222,3859,3026,Large Rural
107060000,44972,10024,547,Metropolitan
80630645.73,34154,12905,356.3,Metropolitan
146405204,58402,24550,563.73,Metropolitan
142422987,62402,12715,894,Metropolitan
119718839.6,54062,11714,514,Metropolitan
112766486.7,50494,9541,735.09,Metropolitan
126247942,51694,14926,483,Metropolitan
141148994.1,47709,13057,696,Metropolitan
94642347,31910,6554,432,Metropolitan
145223230,55630,15484,613,Metropolitan
124023266,53677,12607,721,Metropolitan
87293661.24,39570,12888,598,Metropolitan
96602007.15,28250,6245,306,Metropolitan
94313020.96,39965,8705,484,Metropolitan
507042001,46706,37424,215,Metropolitan
127034859,61393,19065,736,Metropolitan
120828902.9,42269,10203,419,Metropolitan
138447117.6,58803,12261,520,Metropolitan
164429225,45461,19483,265,Metropolitan
118818134.3,40795,17499,340,Metropolitan
126580190,56703,14952,598,Metropolitan
141287087.4,32850,13824,215,Metropolitan
117323419,38773,7961,1396,Regional Centre
141841842.8,40797,7669,3104,Regional Centre
258394052.2,85279,16207,2141,Regional Centre
102514149.7,22973,6248,2339.18,Regional Centre
33734889.12,8014,2165,2976,Regional Centre
91234207.65,29283,4143,1578.56,Regional Centre
72321183.52,19860,4856,5223,Regional Centre
41483913,10988,2994,1941,Regional Centre
56446462,12615,2737,329.25,Regional Centre
47986539,14149,2717,500,Regional Centre
20064430.9,4852,1388,793,Small Rural
19201511.71,4344,989,2310,Small Rural
23553273,5705,1411,1346,Small Rural
14933060.03,2540,1008,5313,Small Rural
20386145,5339,874,1319.7,Small Rural
19032946,4001,1380,2272,Small Rural
20804040,6070,1437,1409,Small Rural
12008522,2230,786,3177,Small Rural
25645090,5844,1772,1565,Small Rural
18173839.05,2978,1033,4722,Small Rural
15357570,3207,1140,807,Small Rural
22764343,5065,1616,1202,Small Rural
23189790.85,4828,1131,3423,Small Rural
12412448,2801,810,2028,Small Rural
8704100,1221,315,43,Small Rural
19859329,3894,1298,2243,Small Rural
9380165,2314,917,1183,Small Rural
11775175.49,1750,758,2809,Small Rural
14837556,2790,1105,4793,Small Rural
