Opex,Staff,Businesses,Roads,Population
107002552,57448,10024,547,127693
80591686.03,38960,12905,356.3,102737
146327347.8,77856,24550,563.73,177361
142347661.2,75326,12715,894,205741
119642483.8,76356,11714,514,155022
112702692,63795,9541,735.09,139511
126182769.5,65173,14926,483,149012
141076886.9,72107,13057,696,160952
94588652.06,53695,6554,432,93392
145146050.1,77180,15484,613,159023
123954962.8,68303,12607,721,160665
87245488.33,48173,12888,598,122902
96550286.03,51721,6245,306,87355
94264597.87,48423,8705,484,114979
506806166,235835,37424,215,148039
126967383,67476,19065,736,192850
120761347.2,67556,10203,419,122968
138371304.6,75813,12261,520,172091
164348293.5,80932,19483,265,108558
118759028,59106,17499,340,111606
126512994.6,67195,14952,598,170093
141211215.9,75871,13824,215,93380
