Opex,Staff,Businesses,Roads,Population
20055158.9,9272,1388,793,12450
19190428.46,11083,989,2310,11707
117264777,58642,7961,1396,103407
107002552,57448,10024,547,127693
55854878.69,27265,2710,931,33317
54119106.33,23466,5111,1988,49008
80591686.03,38960,12905,356.3,102737
23541891.73,11381,1411,1346,13962
146327347.8,77856,24550,563.73,177361
142347661.2,75326,12715,894,205741
14924378.54,8681,1008,5313,6230
55562454.62,33623,4131,4040,37429
79707420.54,31068,7096,1502,97625
203580425.6,94667,17476,1603,313521
20374923.21,11222,874,1319.7,13012
35415109.01,18433,2155,1619,21359
29731339.92,14683,2335,2370,16133
119642483.8,76356,11714,514,155022
66426034,25777,4177,2953,45426
112702692,63795,9541,735.09,139511
19021676.97,11269,1380,2272,10563
126182769.5,65173,14926,483,149012
44822262.07,20738,1918,2631,19726
29812507,16493,1679,1883,21929
141783956.9,57886,7669,3104,111783
141076886.9,72107,13057,696,160952
258262844.2,131208,16207,2141,238603
102469969.5,44180,6248,2339.18,65076
20792913.38,11127,1437,1409,15560
12002641.66,5880,786,3177,5741
94588652.06,53695,6554,432,93392
33718622.59,16267,2165,2976,19817
180277673.7,96313,13251,1228,207830
25633181.12,11909,1772,1565,16035
145146050.1,77180,15484,613,159023
123954962.8,68303,12607,721,160665
91183448.92,50759,4143,1578.56,74329
18163992.27,9847,1033,4722,7555
53629849.73,30314,4410,1671,47512
87245488.33,48173,12888,598,122902
15349378.5,8192,1140,807,8605
96550286.03,51721,6245,306,87355
94264597.87,48423,8705,484,114979
506806166,235835,37424,215,148039
104581708.5,43052,6764,1058.93,141749
72278263.17,42920,4856,5223,54564
42698542.21,22571,2897,1474,41632
40355097.79,18965,3044,3653,29306
126967383,67476,19065,736,192850
120761347.2,67556,10203,419,122968
35332512.08,17979,2547,1481,32658
138371304.6,75813,12261,520,172091
163275355.2,68876,13938,1699,160862
24184919.44,13750,1513,1428,18966
34108505.98,14575,2262,2744,16693
22751705.41,12638,1616,1202,13993
67148165,30835,6454,778,64280
23177282.04,12509,1131,3423,11577
164348293.5,80932,19483,265,108558
12406018.16,6430,810,2028,7301
8700424.418,3676,315,43,2904
48307718.89,23135,3572,2093,28936
28513563.02,16545,1991,2761,16066
118759028,59106,17499,340,111606
19850328.99,9000,1298,2243,10329
49420415.56,26316,3227,1117,30445
40767846.27,19127,2289,3492,20904
9375242.639,4922,917,1183,5973
41460413.2,23500,2994,1941,28559
56416449,30013,2737,329.25,34245
50606119.08,23747,3859,3026,43465
11768836.79,6339,758,2809,3912
126512994.6,67195,14952,598,170093
154597603.9,81018,12116,1277,207881
47964327.44,22212,2717,500,39844
220732034.3,111596,12530,1374,228088
141211215.9,75871,13824,215,93380
136188337.4,62175,12789,1757,155312
14829948.59,7607,1105,4793,6738
